{
    "data": {
        "list": [
            {
                "id": 1,
                "date": "2016-02-02",
                "particulars": "fdsfsdfdsgdfgdfgfd",
                "category": 2,
                "debit": 100,
                "credit": 500,
                "balance": 400,
                "sourceType": "dfdsf",
                "sourceId": 2
            }
          ]
    },
    "success": true,
    "message": ""
}