{
    "success": true,
    "list": [
        {
            "amount": "10.00",
            "account_category": "Mobile Sales"
        },
        {
            "amount": "20.00",
            "account_category": "Website Sales"
        },
        {
            "amount": "10.00",
            "account_category": "Ecom Sales"
        },
        {
            "amount": "20.00",
            "account_category": "WebApplication Sales"
        },
        {
            "amount": "10.00",
            "account_category": "Designing"
        }
    ]
}