{
    "data": {
        "list": [
            {
                "username": "Karthi",
                "categoryList": [
                    {
                        "name": "categoryName",
                        "amount": 20000
                    },
                    {
                        "name": "categoryName1",
                        "amount": 4000
                    },
                                        {
                        "name": "categoryName2",
                        "amount": 2000
                    },
                    {
                        "name": "categoryName3",
                        "amount": 3000
                    },
                       {
                        "name": "categoryName3",
                        "amount": 3000
                    },
                       {
                        "name": "categoryName3",
                        "amount": 3000
                    }
                    
                ]
            },
            {
                "username": "Kumar",
                "categoryList": [
                    {
                        "name": "categoryName",
                        "amount": 25000
                    },
                    {
                        "name": "categoryName1",
                        "amount": 10000
                    },
                     {
                        "name": "categoryName2",
                        "amount": 30000
                    },
                    {
                        "name": "categoryName3",
                        "amount": 5000
                    }
                ]
            },
              {
                "username": "Ram",
                "categoryList": [
                    {
                        "name": "categoryName",
                        "amount": 5000
                    },
                    {
                        "name": "categoryName1",
                        "amount": 10500
                    },
                     {
                        "name": "categoryName2",
                        "amount": 35000
                    },
                    {
                        "name": "categoryName3",
                        "amount": 5000
                    }
                ]
            }
        ]
    },
    "success": true,
    "message": ""
}