{
	"message": "Success",
	"success": true,
	"list": [{
		"date": "13-01-2017",
		"invoice_amount": "00",
		"payment_amount": "00"
	}, {
		"date": "14-01-2017",
		"invoice_amount": "00",
		"payment_amount": "00"
	}, {
		"date": "15-01-2017",
		"invoice_amount": "00",
		"payment_amount": "00"
	}, {
		"date": "16-01-2017",
		"invoice_amount": "00",
		"payment_amount": "00"
	}, {
		"date": "17-01-2017",
		"invoice_amount": "00",
		"payment_amount": "00"
	}, {
		"date": "18-01-2017",
		"invoice_amount": "00",
		"payment_amount": "00"
	}, {
		"date": "19-01-2017",
		"invoice_amount": "00",
		"payment_amount": "00"
	}, {
		"date": "20-01-2017",
		"invoice_amount": "00",
		"payment_amount": "00"
	}, {
		"date": "21-01-2017",
		"invoice_amount": "00",
		"payment_amount": "00"
	}, {
		"date": "22-01-2017",
		"invoice_amount": "00",
		"payment_amount": "00"
	}, {
		"date": "23-01-2017",
		"invoice_amount": "00",
		"payment_amount": "00"
	}, {
		"date": "24-01-2017",
		"invoice_amount": "00",
		"payment_amount": "00"
	}, {
		"date": "25-01-2017",
		"invoice_amount": "00",
		"payment_amount": "00"
	}, {
		"date": "26-01-2017",
		"invoice_amount": "00",
		"payment_amount": "00"
	}, {
		"date": "27-01-2017",
		"invoice_amount": "00",
		"payment_amount": "00"
	}, {
		"date": "28-01-2017",
		"invoice_amount": "00",
		"payment_amount": "00"
	}, {
		"date": "29-01-2017",
		"invoice_amount": "00",
		"payment_amount": "00"
	}, {
		"date": "30-01-2017",
		"invoice_amount": "00",
		"payment_amount": "00"
	}, {
		"date": "31-01-2017",
		"invoice_amount": "300.00",
		"payment_amount": "00"
	}, {
		"date": "01-02-2017",
		"invoice_amount": "00",
		"payment_amount": "00"
	}, {
		"date": "02-02-2017",
		"invoice_amount": "00",
		"payment_amount": "107800.00"
	}, {
		"date": "03-02-2017",
		"invoice_amount": "00",
		"payment_amount": "00"
	}, {
		"date": "04-02-2017",
		"invoice_amount": "00",
		"payment_amount": "00"
	}, {
		"date": "05-02-2017",
		"invoice_amount": "00",
		"payment_amount": "00"
	}, {
		"date": "06-02-2017",
		"invoice_amount": "00",
		"payment_amount": "00"
	}, {
		"date": "07-02-2017",
		"invoice_amount": "00",
		"payment_amount": "00"
	}, {
		"date": "08-02-2017",
		"invoice_amount": "00",
		"payment_amount": "00"
	}, {
		"date": "09-02-2017",
		"invoice_amount": "00",
		"payment_amount": "00"
	}, {
		"date": "10-02-2017",
		"invoice_amount": "00",
		"payment_amount": "00"
	}, {
		"date": "11-02-2017",
		"invoice_amount": "00",
		"payment_amount": "00"
	}, {
		"date": "12-02-2017",
		"invoice_amount": "00",
		"payment_amount": "00"
	}, {
		"date": "13-02-2017",
		"invoice_amount": "00",
		"payment_amount": "00"
	}, {
		"date": "14-02-2017",
		"invoice_amount": "00",
		"payment_amount": "00"
	}, {
		"date": "15-02-2017",
		"invoice_amount": "00",
		"payment_amount": "00"
	}, {
		"date": "16-02-2017",
		"invoice_amount": "00",
		"payment_amount": "00"
	}, {
		"date": "17-02-2017",
		"invoice_amount": "00",
		"payment_amount": "00"
	}, {
		"date": "18-02-2017",
		"invoice_amount": "00",
		"payment_amount": "00"
	}, {
		"date": "19-02-2017",
		"invoice_amount": "00",
		"payment_amount": "00"
	}, {
		"date": "20-02-2017",
		"invoice_amount": "00",
		"payment_amount": "00"
	}, {
		"date": "21-02-2017",
		"invoice_amount": "00",
		"payment_amount": "00"
	}, {
		"date": "22-02-2017",
		"invoice_amount": "00",
		"payment_amount": "00"
	}, {
		"date": "23-02-2017",
		"invoice_amount": "00",
		"payment_amount": "00"
	}, {
		"date": "24-02-2017",
		"invoice_amount": "00",
		"payment_amount": "00"
	}, {
		"date": "25-02-2017",
		"invoice_amount": "00",
		"payment_amount": "00"
	}, {
		"date": "26-02-2017",
		"invoice_amount": "00",
		"payment_amount": "00"
	}, {
		"date": "27-02-2017",
		"invoice_amount": "00",
		"payment_amount": "00"
	}, {
		"date": "28-02-2017",
		"invoice_amount": "00",
		"payment_amount": "00"
	}, {
		"date": "01-03-2017",
		"invoice_amount": "00",
		"payment_amount": "00"
	}, {
		"date": "02-03-2017",
		"invoice_amount": "00",
		"payment_amount": "00"
	}, {
		"date": "03-03-2017",
		"invoice_amount": "00",
		"payment_amount": "00"
	}, {
		"date": "04-03-2017",
		"invoice_amount": "00",
		"payment_amount": "00"
	}, {
		"date": "05-03-2017",
		"invoice_amount": "00",
		"payment_amount": "00"
	}, {
		"date": "06-03-2017",
		"invoice_amount": "00",
		"payment_amount": "00"
	}, {
		"date": "07-03-2017",
		"invoice_amount": "00",
		"payment_amount": "00"
	}, {
		"date": "08-03-2017",
		"invoice_amount": "00",
		"payment_amount": "00"
	}, {
		"date": "09-03-2017",
		"invoice_amount": "00",
		"payment_amount": "00"
	}, {
		"date": "10-03-2017",
		"invoice_amount": "00",
		"payment_amount": "00"
	}, {
		"date": "11-03-2017",
		"invoice_amount": "00",
		"payment_amount": "00"
	}, {
		"date": "12-03-2017",
		"invoice_amount": "00",
		"payment_amount": "00"
	}, {
		"date": "13-03-2017",
		"invoice_amount": "00",
		"payment_amount": "00"
	}, {
		"date": "14-03-2017",
		"invoice_amount": "00",
		"payment_amount": "00"
	}, {
		"date": "15-03-2017",
		"invoice_amount": "00",
		"payment_amount": "00"
	}, {
		"date": "16-03-2017",
		"invoice_amount": "00",
		"payment_amount": "00"
	}, {
		"date": "17-03-2017",
		"invoice_amount": "00",
		"payment_amount": "00"
	}, {
		"date": "18-03-2017",
		"invoice_amount": "00",
		"payment_amount": "00"
	}, {
		"date": "19-03-2017",
		"invoice_amount": "00",
		"payment_amount": "00"
	}, {
		"date": "20-03-2017",
		"invoice_amount": "00",
		"payment_amount": "00"
	}, {
		"date": "21-03-2017",
		"invoice_amount": "00",
		"payment_amount": "00"
	}, {
		"date": "22-03-2017",
		"invoice_amount": "00",
		"payment_amount": "00"
	}, {
		"date": "23-03-2017",
		"invoice_amount": "00",
		"payment_amount": "00"
	}, {
		"date": "24-03-2017",
		"invoice_amount": "00",
		"payment_amount": "00"
	}, {
		"date": "25-03-2017",
		"invoice_amount": "00",
		"payment_amount": "00"
	}, {
		"date": "26-03-2017",
		"invoice_amount": "00",
		"payment_amount": "00"
	}, {
		"date": "27-03-2017",
		"invoice_amount": "00",
		"payment_amount": "00"
	}, {
		"date": "28-03-2017",
		"invoice_amount": "00",
		"payment_amount": "00"
	}, {
		"date": "29-03-2017",
		"invoice_amount": "00",
		"payment_amount": "00"
	}, {
		"date": "30-03-2017",
		"invoice_amount": "00",
		"payment_amount": "00"
	}, {
		"date": "31-03-2017",
		"invoice_amount": "00",
		"payment_amount": "00"
	}, {
		"date": "01-04-2017",
		"invoice_amount": "00",
		"payment_amount": "00"
	}, {
		"date": "02-04-2017",
		"invoice_amount": "00",
		"payment_amount": "00"
	}, {
		"date": "03-04-2017",
		"invoice_amount": "00",
		"payment_amount": "00"
	}, {
		"date": "04-04-2017",
		"invoice_amount": "00",
		"payment_amount": "00"
	}, {
		"date": "05-04-2017",
		"invoice_amount": "00",
		"payment_amount": "00"
	}, {
		"date": "06-04-2017",
		"invoice_amount": "00",
		"payment_amount": "00"
	}, {
		"date": "07-04-2017",
		"invoice_amount": "00",
		"payment_amount": "260.00"
	}, {
		"date": "08-04-2017",
		"invoice_amount": "00",
		"payment_amount": "00"
	}, {
		"date": "09-04-2017",
		"invoice_amount": "00",
		"payment_amount": "00"
	}, {
		"date": "10-04-2017",
		"invoice_amount": "00",
		"payment_amount": "00"
	}, {
		"date": "11-04-2017",
		"invoice_amount": "211.65",
		"payment_amount": "00"
	}, {
		"date": "12-04-2017",
		"invoice_amount": "00",
		"payment_amount": "00"
	}]
}