{
    "success": true,
    "total": 4,
    "list": [
    {
        "role_id":"1",
        "screen_id":"1",
        "is_create":"1",
        "is_modify":"1",
        "is_view"  :"1",
        "is_delete":"0"
      
    },
    {
        "role_id":"3",
        "screen_id":"2",
        "is_create":"1",
        "is_modify":"0",
        "is_view"  :"1",
        "is_delete":"1"
      
    },
    {
        "role_id":"1",
        "screen_id":"3",
        "is_create":"1",
        "is_modify":"0",
        "is_view"  :"1",
        "is_delete":"0"
      
    },
    {
        "role_id":"1",
        "screen_id" :"4",
        "is_create" :"1",
        "is_modify" :"1",
        "is_view"   :"1",
        "is_delete" :"1"
    }
]
}